Create template for data input — create_template_ • sensehubr
…
create_template_(design, panelist = Panelis, attribute = c("Sweetness", "Mint", "Green", "Herbal"))
#> # A tibble: 100 x 7
#>    Panelis  Urutan  Produk        Sweetness  Mint Green Herbal
#>    <fct>    <chr>   <chr>             <int> <int> <int>  <int>
#>  1 Panelis1 Urutan1 Produk1 (474)        NA    NA    NA     NA
#>  2 Panelis1 Urutan2 Produk2 (724)        NA    NA    NA     NA
#>  3 Panelis1 Urutan3 Produk5 (211)        NA    NA    NA     NA
#>  4 Panelis1 Urutan4 Produk3 (233)        NA    NA    NA     NA
#>  5 Panelis1 Urutan5 Produk4 (904)        NA    NA    NA     NA
#>  6 Panelis2 Urutan1 Produk2 (724)        NA    NA    NA     NA
#>  7 Panelis2 Urutan2 Produk3 (233)        NA    NA    NA     NA
#>  8 Panelis2 Urutan3 Produk1 (474)        NA    NA    NA     NA
#>  9 Panelis2 Urutan4 Produk4 (904)        NA    NA    NA     NA
#> 10 Panelis2 Urutan5 Produk5 (211)        NA    NA    NA     NA
#> # … with 90 more rows
…
